<?xml version="1.0" encoding="UTF-8" standalone="no"?>
<svg
   xmlns:dc="http://purl.org/dc/elements/1.1/"
   xmlns:cc="http://creativecommons.org/ns#"
   xmlns:rdf="http://www.w3.org/1999/02/22-rdf-syntax-ns#"
   xmlns:svg="http://www.w3.org/2000/svg"
   xmlns="http://www.w3.org/2000/svg"
   xmlns:sodipodi="http://sodipodi.sourceforge.net/DTD/sodipodi-0.dtd"
   xmlns:inkscape="http://www.inkscape.org/namespaces/inkscape"
   sodipodi:docname="shapes-f21.svg"
   inkscape:version="1.0beta1 (a4ee55bc41, 2019-11-15)"
   sodipodi:version="0.32"
   id="svg2970"
   viewBox="0 0 300 65"
   height="65"
   width="300"
   version="1.1">
  <defs
     id="defs3" />
  <sodipodi:namedview
     inkscape:window-maximized="1"
     inkscape:window-y="27"
     inkscape:window-x="54"
     inkscape:window-height="1016"
     inkscape:window-width="1866"
     inkscape:guide-bbox="true"
     showguides="true"
     units="px"
     showgrid="false"
     inkscape:document-rotation="0"
     inkscape:current-layer="layer1"
     inkscape:document-units="px"
     inkscape:cy="32.5"
     inkscape:cx="160"
     inkscape:zoom="1.4"
     inkscape:pageshadow="2"
     inkscape:pageopacity="0.0"
     borderopacity="1.0"
     bordercolor="#666666"
     pagecolor="#ffffff"
     id="base"
     inkscape:lockguides="true" />
  <metadata
     id="metadata4">
    <rdf:RDF>
      <cc:Work
         rdf:about="">
        <dc:format>image/svg+xml</dc:format>
        <dc:type
           rdf:resource="http://purl.org/dc/dcmitype/StillImage" />
        <dc:title />
      </cc:Work>
    </rdf:RDF>
  </metadata>
  <g
     id="layer1"
     inkscape:groupmode="layer"
     inkscape:label="Layer 1">
    <text
       id="text2996"
       y="6"
       x="32.67231"
       style="font-style:normal;font-variant:normal;font-weight:normal;font-stretch:normal;line-height:0%;font-family:'Liberation Sans',Arial,sans-serif;writing-mode:lr-tb;text-anchor:start;fill:#000000;fill-opacity:1;stroke:none;stroke-width:1pt;stroke-linecap:butt;stroke-linejoin:miter;stroke-opacity:1"
       xml:space="preserve"><tspan
         y="6"
         x="32.67231"
         id="tspan2989"
         sodipodi:role="line"
         style="font-size:6px;line-height:1.1">0.2</tspan></text>
    <text
       id="text3053"
       y="6"
       x="92.364853"
       style="font-style:normal;font-variant:normal;font-weight:normal;font-stretch:normal;line-height:0%;font-family:'Liberation Sans',Arial,sans-serif;writing-mode:lr-tb;text-anchor:start;fill:#000000;fill-opacity:1;stroke:none;stroke-width:1pt;stroke-linecap:butt;stroke-linejoin:miter;stroke-opacity:1"
       xml:space="preserve"><tspan
         y="6"
         x="92.364853"
         id="tspan2982"
         sodipodi:role="line"
         style="font-size:6px;line-height:1.1">0.5</tspan></text>
    <text
       id="text2982"
       y="6"
       x="272.38589"
       style="font-style:normal;font-variant:normal;font-weight:normal;font-stretch:normal;line-height:0%;font-family:'Liberation Sans',Arial,sans-serif;writing-mode:lr-tb;text-anchor:start;fill:#000000;fill-opacity:1;stroke:none;stroke-width:1pt;stroke-linecap:butt;stroke-linejoin:miter;stroke-opacity:1"
       xml:space="preserve"><tspan
         y="6"
         x="272.38589"
         id="tspan2975"
         sodipodi:role="line"
         style="font-size:6px;line-height:1.1">6</tspan></text>
    <text
       id="text3039"
       y="6"
       x="214.92252"
       style="font-style:normal;font-variant:normal;font-weight:normal;font-stretch:normal;line-height:0%;font-family:'Liberation Sans',Arial,sans-serif;writing-mode:lr-tb;text-anchor:start;fill:#000000;fill-opacity:1;stroke:none;stroke-width:1pt;stroke-linecap:butt;stroke-linejoin:miter;stroke-opacity:1"
       xml:space="preserve"><tspan
         y="6"
         x="214.92252"
         id="tspan2968"
         sodipodi:role="line"
         style="font-size:6px;line-height:1.1">2</tspan></text>
    <text
       id="text2960"
       y="6"
       x="154.44792"
       style="font-style:normal;font-variant:normal;font-weight:normal;font-stretch:normal;line-height:0%;font-family:'Liberation Sans',Arial,sans-serif;writing-mode:lr-tb;text-anchor:start;fill:#000000;fill-opacity:1;stroke:none;stroke-width:1pt;stroke-linecap:butt;stroke-linejoin:miter;stroke-opacity:1"
       xml:space="preserve"><tspan
         y="6"
         x="154.44792"
         id="tspan2960"
         sodipodi:role="line"
         style="font-size:6px;line-height:1.1">1</tspan></text>
    <path
       transform="scale(-1,1)"
       d="m -156.81595,36.120815 c 0.41727,0.572259 -0.56552,0.844807 -0.95113,0.693535 -1.04497,-0.40994 -1.00181,-1.823895 -0.43594,-2.595797 1.01222,-1.38075 3.05723,-1.240777 4.24046,-0.178341 1.73645,1.559168 1.48977,4.308345 -0.0793,5.885127 -2.09126,2.101603 -5.56592,1.743195 -7.52979,-0.336852 -2.47133,-2.617527 -1.99897,-6.826609 0.59445,-9.174458 3.14096,-2.843559 8.08905,-2.256089 10.81912,0.852046 3.21729,3.662829 2.51407,9.352599 -1.10964,12.463788 -4.18372,3.591991 -10.61688,2.772621 -14.10846,-1.367238 -3.96735,-4.703972 -3.03157,-11.881667 1.62484,-15.753119 5.22378,-4.343185 13.14683,-3.290809 17.39778,1.882431 4.71936,5.743278 3.55027,14.41228 -2.14003,19.04245 -6.26253,5.095803 -15.67794,3.809883 -20.68711,-2.397625 -5.47245,-6.781612 -4.06963,-16.943781 2.65522,-22.33178 7.30055,-5.84925 18.20975,-4.329487 23.97645,2.912818 6.22618,7.819373 4.58942,19.475839 -3.17042,25.621111 -8.3381,6.603221 -20.74202,4.84943 -27.26577,-3.428011 -6.98035,-8.856765 -5.1095,-22.008271 3.6856,-28.910442 9.37536,-7.357545 23.27459,-5.369606 30.55511,3.943204 7.7348,9.893907 5.62976,24.540964 -4.2008,32.199773 -10.41241,8.112116 -25.80739,5.889946 -33.84444,-4.458398 -8.48947,-10.930872 -6.15016,-27.073847 4.716,-35.489103 11.4493,-8.8668702 28.34034,-6.4104082 37.13376,4.973591 9.2443,11.967705 6.67068,29.606874 -5.23118,38.778434"
       sodipodi:t0="0"
       sodipodi:argument="-36.75835"
       sodipodi:radius="28.251171"
       sodipodi:revolution="6"
       sodipodi:expansion="1"
       sodipodi:cy="36.120815"
       sodipodi:cx="-156.81595"
       id="path2948"
       style="color:#000000;fill:none;fill-opacity:0.75;fill-rule:evenodd;stroke:#000000;stroke-width:1pt;stroke-linecap:butt;stroke-linejoin:miter;stroke-miterlimit:4;stroke-dashoffset:0;stroke-opacity:1;marker:none;marker-start:none;marker-mid:none;marker-end:none"
       sodipodi:type="spiral" />
    <path
       transform="scale(-1,1)"
       d="m -217.05225,34.693817 c 0.0128,0.01759 -0.0319,0.02917 -0.0396,0.0289 -0.0891,-0.0032 -0.10029,-0.125388 -0.076,-0.187419 0.0733,-0.186923 0.32401,-0.190303 0.47227,-0.101553 0.3131,0.187425 0.30124,0.627403 0.10568,0.894162 -0.34434,0.46971 -1.03602,0.433585 -1.45312,0.08835 -0.65739,-0.54413 -0.5875,-1.549996 -0.0495,-2.149128 0.7869,-0.876369 2.16942,-0.763071 2.9822,0.01073 1.12674,1.072709 0.96031,2.894324 -0.0925,3.952315 -1.40161,1.408545 -3.72474,1.179252 -5.05949,-0.19567 -1.7218,-1.773624 -1.41989,-4.660692 0.32034,-6.303725 2.18877,-2.066521 5.70218,-1.682229 7.68501,0.466477 2.44271,2.64706 1.96628,6.84922 -0.63408,9.203355 -3.1485,2.850378 -8.10181,2.272032 -10.85875,-0.823148 -3.28952,-3.693098 -2.5995,-9.459961 1.03368,-12.651207 4.28086,-3.760142 10.92367,-2.948669 14.58072,1.265684 4.26224,4.911777 3.31955,12.492945 -1.51916,16.647282 -5.58586,4.795822 -14.16778,3.712143 -18.8509,-1.794087 -5.36088,-6.303119 -4.12644,-15.948187 2.09049,-21.191578 7.06354,-5.957426 17.83416,-4.562455 23.66931,2.408355 6.58545,7.867136 5.02018,19.825698 -2.74769,26.284096 -8.7139,7.244955 -21.92281,5.499608 -29.03594,-3.108489 -7.93594,-9.603836 -6.00075,-24.125482 3.49076,-31.924835 10.53694,-8.6584124 26.43373,-6.5235991 34.95079,3.894488 9.41236,11.513226 7.06816,28.847546 -4.31969,38.113796"
       sodipodi:t0="0"
       sodipodi:argument="-36.75835"
       sodipodi:radius="28.251171"
       sodipodi:revolution="6"
       sodipodi:expansion="2"
       sodipodi:cy="34.693817"
       sodipodi:cx="-217.05225"
       id="path2949"
       style="color:#000000;fill:none;fill-opacity:0.75;fill-rule:evenodd;stroke:#000000;stroke-width:1pt;stroke-linecap:butt;stroke-linejoin:miter;stroke-miterlimit:4;stroke-dashoffset:0;stroke-opacity:1;marker:none;marker-start:none;marker-mid:none;marker-end:none"
       sodipodi:type="spiral" />
    <path
       transform="scale(-1,1)"
       d="m -277.28845,29.462816 c 0,0 0,0 0,0 -10e-6,2e-6 -10e-6,-6e-6 -10e-6,-7e-6 0,-4.3e-5 7e-5,-5.7e-5 9e-5,-5.6e-5 2.6e-4,9e-6 3.1e-4,3.7e-4 2.7e-4,5.53e-4 -1.7e-4,9.61e-4 -0.001,0.0011 -0.002,8.71e-4 -0.003,-8.42e-4 -0.003,-0.0046 -0.002,-0.0069 0.003,-0.0071 0.0122,-0.0075 0.0181,-0.0047 0.0155,0.0073 0.0159,0.0283 0.009,0.04156 -0.0167,0.03097 -0.0593,0.03114 -0.0863,0.01497 -0.0575,-0.03443 -0.0567,-0.114832 -0.0236,-0.165737 0.0654,-0.10069 0.20849,-0.09745 0.29871,-0.03485 0.16791,0.116495 0.1599,0.35897 0.0485,0.510974 -0.19708,0.268838 -0.59116,0.252277 -0.83663,0.06374 -0.41576,-0.31934 -0.38497,-0.937403 -0.0793,-1.319808 0.4989,-0.624051 1.43881,-0.570811 2.01642,-0.09271 0.91266,0.755424 0.82547,2.146752 0.10067,2.996138 -1.11324,1.304605 -3.12451,1.167776 -4.34449,0.09832 -1.82751,-1.602018 -1.62019,-4.448888 -0.0792,-6.165093 2.25751,-2.514203 6.21208,-2.20918 8.58202,-0.0349 3.40332,3.12235 2.96568,8.523596 -0.0453,11.7424 -4.24682,4.539963 -11.51229,3.925573 -15.81904,-0.174644 -5.97635,-5.689763 -5.13018,-15.328549 0.36947,-21.013286 7.51953,-7.7725765 20.14655,-6.6268079 27.55805,0.649429 9.99733,9.814861 8.46923,26.166631 -1.03798,35.72088"
       sodipodi:t0="0"
       sodipodi:argument="-36.75835"
       sodipodi:radius="28.251171"
       sodipodi:revolution="6"
       sodipodi:expansion="6"
       sodipodi:cy="29.462816"
       sodipodi:cx="-277.28845"
       id="path2950"
       style="color:#000000;fill:none;fill-opacity:0.75;fill-rule:evenodd;stroke:#000000;stroke-width:1pt;stroke-linecap:butt;stroke-linejoin:miter;stroke-miterlimit:4;stroke-dashoffset:0;stroke-opacity:1;marker:none;marker-start:none;marker-mid:none;marker-end:none"
       sodipodi:type="spiral" />
    <path
       transform="scale(-1,1)"
       d="m -96.57975,37.071815 c 2.655466,3.641775 -2.060595,5.302902 -4.65957,3.397611 -3.28579,-2.408786 -2.798,-7.32149 -0.14538,-9.987239 3.590983,-3.608749 9.579678,-2.93581 12.875564,0.704794 4.004896,4.423771 3.146643,11.407376 -1.275393,15.203977 -5.111692,4.388715 -12.982571,3.36792 -17.214341,-1.721854 -4.75022,-5.713355 -3.58535,-14.38739 2.09671,-19.01086 6.25556,-5.090129 15.667322,-3.795221 20.650476,2.424339 5.410864,6.753392 3.996818,16.850668 -2.718172,22.16849 -7.216381,5.71489 -17.956424,4.190393 -23.588604,-2.986425 -6.00434,-7.651041 -4.3765,-18.998083 3.23452,-24.92769 8.062058,-6.281001 19.985633,-4.555739 26.198239,3.466258 6.54635,8.452942 4.728713,20.926708 -3.68438,27.409827 -8.826414,6.801623 -21.827309,4.895961 -28.569989,-3.890968 -7.04786,-9.184621 -5.05797,-22.692238 4.08762,-29.684778 9.52931,-7.285919 23.52543,-5.215159 30.759141,4.275629 7.516564,9.861897 5.367921,24.330125 -4.455998,31.797174 -10.183591,7.740431 -25.109073,5.51659 -32.802343,-4.629577 -7.95808,-10.495395 -5.66147,-25.864587 4.79706,-33.777593 10.79817,-8.169986 26.598665,-5.802814 34.725439,4.959044 8.376585,11.092668 5.940873,27.313037 -5.116022,35.648077 -11.379526,8.578249 -28.009207,6.075857 -36.547417,-5.268427 -8.77531,-11.659313 -6.20796,-28.688491 5.41663,-37.425134 11.93253,-8.9680807 29.352072,-6.3373498 38.282728,5.560957 9.156813,12.199616 6.464189,30.00098 -5.701693,39.121512"
       sodipodi:t0="0"
       sodipodi:argument="-36.75835"
       sodipodi:radius="28.251171"
       sodipodi:revolution="6"
       sodipodi:expansion="0.5"
       sodipodi:cy="37.071815"
       sodipodi:cx="-96.57975"
       id="path2952"
       style="color:#000000;fill:none;fill-opacity:0.75;fill-rule:evenodd;stroke:#000000;stroke-width:1pt;stroke-linecap:butt;stroke-linejoin:miter;stroke-miterlimit:4;stroke-dashoffset:0;stroke-opacity:1;marker:none;marker-start:none;marker-mid:none;marker-end:none"
       sodipodi:type="spiral" />
    <path
       transform="scale(-1,1)"
       d="m -36.343452,37.071815 c 9.95915,13.658237 -4.981022,16.34432 -12.089528,8.815298 -6.17015,-6.535156 -4.737428,-17.131273 1.96341,-22.702517 7.586199,-6.307356 19.127105,-4.70407 25.186415,2.90573 6.555475,8.232926 4.796438,20.525862 -3.428442,26.933716 -8.718556,6.792467 -21.622382,4.910806 -28.312135,-3.789499 -7.007406,-9.113427 -5.025714,-22.533029 4.065861,-29.462467 9.448958,-7.201829 23.31653,-5.135655 30.455818,4.29036 7.378793,9.742233 5.23936,24.006983 -4.479907,31.333676 -10.003689,7.5411 -24.626082,5.336859 -32.122572,-4.644316 -7.691044,-10.240214 -5.428586,-25.188541 4.789774,-32.84059 10.456615,-7.830466 25.704836,-5.515074 33.500658,4.920428 7.9608359,10.656389 5.596844,26.182705 -5.039191,34.112364 -10.84217,8.083342 -26.62804,5.674372 -34.683028,-5.148188 -8.198957,-11.015992 -5.748084,-27.045436 5.249013,-35.218381 11.179464,-8.3084785 27.438553,-5.818346 35.722993,5.3429 8.4125769,11.333879 5.8854857,27.810354 -5.430815,36.200576 -11.480294,8.511812 -28.163274,5.949782 -36.654186,-5.513535 -8.606664,-11.619589 -6.011485,-28.499344 5.59169,-37.086375 11.752499,-8.69754 28.820273,-6.0708094 37.499296,5.665803 8.7847933,11.879646 6.1279463,29.127513 -5.736309,37.894778 -12.001567,8.868733 -29.422313,6.183067 -38.274399,-5.803574 -8.949627,-12.11872 -6.23632,-29.70575 5.867911,-38.639522 12.231506,-9.027711 29.978766,-6.287839 38.991338,5.929589 9.1031946,12.340276 6.3377442,30.242184 -5.98884,39.33089"
       sodipodi:t0="0"
       sodipodi:argument="-36.75835"
       sodipodi:radius="28.251171"
       sodipodi:revolution="6"
       sodipodi:expansion="0.2"
       sodipodi:cy="37.071815"
       sodipodi:cx="-36.343452"
       id="path2953"
       style="color:#000000;fill:none;fill-opacity:0.75;fill-rule:evenodd;stroke:#000000;stroke-width:1pt;stroke-linecap:butt;stroke-linejoin:miter;stroke-miterlimit:4;stroke-dashoffset:0;stroke-opacity:1;marker:none;marker-start:none;marker-mid:none;marker-end:none"
       sodipodi:type="spiral" />
  </g>
</svg>
