<?xml version="1.0" encoding="UTF-8" standalone="no"?>
<svg
   xmlns:dc="http://purl.org/dc/elements/1.1/"
   xmlns:cc="http://creativecommons.org/ns#"
   xmlns:rdf="http://www.w3.org/1999/02/22-rdf-syntax-ns#"
   xmlns:svg="http://www.w3.org/2000/svg"
   xmlns="http://www.w3.org/2000/svg"
   xmlns:sodipodi="http://sodipodi.sourceforge.net/DTD/sodipodi-0.dtd"
   xmlns:inkscape="http://www.inkscape.org/namespaces/inkscape"
   sodipodi:docname="shapes-f22.svg"
   inkscape:version="1.0beta1 (a4ee55bc41, 2019-11-15)"
   sodipodi:version="0.32"
   id="svg3057"
   viewBox="0 0 300 100"
   height="100"
   width="300"
   version="1.1">
  <defs
     id="defs3" />
  <sodipodi:namedview
     inkscape:window-maximized="0"
     inkscape:window-y="27"
     inkscape:window-x="54"
     inkscape:window-height="1053"
     inkscape:window-width="1866"
     inkscape:guide-bbox="true"
     showguides="true"
     units="px"
     showgrid="false"
     inkscape:document-rotation="0"
     inkscape:current-layer="layer1"
     inkscape:document-units="px"
     inkscape:cy="50"
     inkscape:cx="160"
     inkscape:zoom="1.4"
     inkscape:pageshadow="2"
     inkscape:pageopacity="0.0"
     borderopacity="1.0"
     bordercolor="#666666"
     pagecolor="#ffffff"
     id="base"
     inkscape:lockguides="true" />
  <metadata
     id="metadata4">
    <rdf:RDF>
      <cc:Work
         rdf:about="">
        <dc:format>image/svg+xml</dc:format>
        <dc:type
           rdf:resource="http://purl.org/dc/dcmitype/StillImage" />
        <dc:title />
      </cc:Work>
    </rdf:RDF>
  </metadata>
  <g
     id="layer1"
     inkscape:groupmode="layer"
     inkscape:label="Layer 1">
    <path
       transform="matrix(-0.128635,0.679333,-0.679333,-0.128635,4572.5747,795.755)"
       d="m 84.272412,6515.4516 c -0.242072,-11.9968 11.068226,-20.7892 22.533728,-20.0377 13.64873,0.8947 23.48588,13.7113 22.21362,27.0561 -1.423,14.9259 -15.51414,25.611 -30.219364,23.9865 -15.983008,-1.7656 -27.382228,-16.9181 -25.491398,-32.7245 2.020804,-16.8928 18.08473,-28.9129 34.828602,-26.8071 17.69659,2.2255 30.26848,19.0918 27.98197,36.6586 -2.39754,18.4197 -19.98348,31.4903 -38.287568,29.0472 -19.079225,-2.5465 -32.605976,-20.787 -30.024516,-39.7616 2.6784,-19.6871 21.520804,-33.6353 41.112024,-30.9295 20.25211,2.7971 34.59285,22.1979 31.77386,42.3613 -2.90532,20.7809 -22.82769,35.4894 -43.52586,32.5664 -21.27846,-3.0049 -36.333646,-23.4175 -33.314311,-44.6184 1.447795,-10.166 6.892414,-19.5398 14.977317,-25.8648"
       sodipodi:t0="0.076614626"
       sodipodi:argument="-17.179831"
       sodipodi:radius="40.249962"
       sodipodi:revolution="3.3807619"
       sodipodi:expansion="0.28900903"
       sodipodi:cy="6518.4199"
       sodipodi:cx="103.19778"
       id="path3031"
       style="color:#000000;fill:#ff6c2e;fill-opacity:1;fill-rule:evenodd;stroke:none;stroke-width:0.862877pt;stroke-linecap:butt;stroke-linejoin:miter;stroke-miterlimit:4;stroke-dashoffset:0;stroke-opacity:0.236923;marker:none;marker-start:none;marker-mid:none;marker-end:none"
       sodipodi:type="spiral" />
    <path
       d="m 184.60729,29.831352 c -0.22978,-1.5417 1.69723,-2.438384 2.92394,-2.554061 5.69936,-0.537441 8.78524,6.394057 8.99906,11.031652 0.29452,6.387646 -2.89243,12.500771 -7.25732,16.979074"
       sodipodi:t0="0.77700925"
       sodipodi:argument="-16.24534"
       sodipodi:radius="25.241213"
       sodipodi:revolution="2.8106463"
       sodipodi:expansion="13.200652"
       sodipodi:cy="30.354593"
       sodipodi:cx="185.34319"
       id="path2997"
       style="color:#000000;fill:none;fill-opacity:0.75;fill-rule:evenodd;stroke:#000000;stroke-width:0.999998pt;stroke-linecap:butt;stroke-linejoin:miter;stroke-miterlimit:4;stroke-dashoffset:0;stroke-opacity:1;marker:none;marker-start:none;marker-mid:none;marker-end:none"
       sodipodi:type="spiral" />
    <path
       d="m 176.40591,30.249354 c -0.22978,-1.5417 1.69722,-2.438387 2.92394,-2.554065 5.69936,-0.537448 8.78524,6.394049 8.99907,11.031645 0.49714,10.782078 -8.22218,19.746465 -17.33211,24.069062"
       sodipodi:t0="0.76208192"
       sodipodi:argument="-16.24534"
       sodipodi:radius="32.607655"
       sodipodi:revolution="2.8656998"
       sodipodi:expansion="13.200652"
       sodipodi:cy="30.772594"
       sodipodi:cx="177.1418"
       id="path2998"
       style="color:#000000;fill:none;fill-opacity:0.75;fill-rule:evenodd;stroke:#000000;stroke-width:0.999998pt;stroke-linecap:butt;stroke-linejoin:miter;stroke-miterlimit:4;stroke-dashoffset:0;stroke-opacity:1;marker:none;marker-start:none;marker-mid:none;marker-end:none"
       sodipodi:type="spiral" />
    <path
       d="m 193.22533,29.831353 c -0.22977,-1.541698 1.69723,-2.438381 2.92394,-2.554058 5.69936,-0.537439 8.78522,6.394049 8.99905,11.031637 0.14533,3.152128 -0.58354,6.306425 -1.86859,9.174367"
       sodipodi:t0="0.79235041"
       sodipodi:argument="-16.24534"
       sodipodi:radius="19.499413"
       sodipodi:revolution="2.7562277"
       sodipodi:expansion="13.200652"
       sodipodi:cy="30.354593"
       sodipodi:cx="193.96123"
       id="path2999"
       style="color:#000000;fill:none;fill-opacity:0.75;fill-rule:evenodd;stroke:#000000;stroke-width:0.999998pt;stroke-linecap:butt;stroke-linejoin:miter;stroke-miterlimit:4;stroke-dashoffset:0;stroke-opacity:1;marker:none;marker-start:none;marker-mid:none;marker-end:none"
       sodipodi:type="spiral" />
    <path
       d="m 201.95081,29.831354 c -0.22977,-1.541697 1.69723,-2.43838 2.92394,-2.554058 5.69935,-0.537443 8.78522,6.394038 8.99905,11.031622 0.004,0.09608 0.008,0.192199 0.0108,0.288341"
       sodipodi:t0="0.81291085"
       sodipodi:argument="-16.24534"
       sodipodi:radius="13.904506"
       sodipodi:revolution="2.686516"
       sodipodi:expansion="13.200652"
       sodipodi:cy="30.354593"
       sodipodi:cx="202.68671"
       id="path3000"
       style="color:#000000;fill:none;fill-opacity:0.75;fill-rule:evenodd;stroke:#000000;stroke-width:0.999998pt;stroke-linecap:butt;stroke-linejoin:miter;stroke-miterlimit:4;stroke-dashoffset:0;stroke-opacity:1;marker:none;marker-start:none;marker-mid:none;marker-end:none"
       sodipodi:type="spiral" />
    <path
       d="m 210.78365,29.831354 c -0.22977,-1.541696 1.69723,-2.438379 2.92394,-2.554056 1.88907,-0.178137 3.74238,0.71115 5.12129,1.945576"
       sodipodi:t0="0.8527261"
       sodipodi:argument="-16.24534"
       sodipodi:radius="7.3964314"
       sodipodi:revolution="2.5610781"
       sodipodi:expansion="13.200652"
       sodipodi:cy="30.354593"
       sodipodi:cx="211.51955"
       id="path3001"
       style="color:#000000;fill:none;fill-opacity:0.75;fill-rule:evenodd;stroke:#000000;stroke-width:0.999998pt;stroke-linecap:butt;stroke-linejoin:miter;stroke-miterlimit:4;stroke-dashoffset:0;stroke-opacity:1;marker:none;marker-start:none;marker-mid:none;marker-end:none"
       sodipodi:type="spiral" />
    <path
       transform="matrix(0.690923,0.02577214,-0.02577214,0.690923,167.76588,-4440.038)"
       d="m 241.27769,6460.5504 c -0.33234,-2.2299 2.45475,-3.5268 4.22898,-3.6941 8.24318,-0.7773 12.70641,9.2479 13.01569,15.9554 1.24746,27.0539 -31.03956,40.8495 -53.4589,40.9249 -1.6401,0.01 -3.28033,-0.041 -4.91757,-0.1381"
       sodipodi:t0="0.74191737"
       sodipodi:argument="-16.24534"
       sodipodi:radius="67.193001"
       sodipodi:revolution="2.9435861"
       sodipodi:expansion="13.200652"
       sodipodi:cy="6461.3071"
       sodipodi:cx="242.34204"
       id="path3002"
       style="color:#000000;fill:none;fill-opacity:0.75;fill-rule:evenodd;stroke:#000000;stroke-width:1.44633pt;stroke-linecap:butt;stroke-linejoin:miter;stroke-miterlimit:4;stroke-dashoffset:0;stroke-opacity:1;marker:none;marker-start:none;marker-mid:none;marker-end:none"
       sodipodi:type="spiral" />
    <path
       d="M 111.31013,85.440568 C 110.02545,93.822688 101.6704,99.267157 93.465424,97.921874 84.041782,96.376778 77.942479,86.945676 79.536852,77.697161 81.34099,67.231851 91.849718,60.476896 102.14157,62.321321 c 10.72261,1.921624 18.06572,12.210532 17.10382,22.935706"
       sodipodi:t0="0.6494782"
       sodipodi:argument="-17.5138"
       sodipodi:radius="22.143892"
       sodipodi:revolution="2.8106463"
       sodipodi:expansion="1"
       sodipodi:cy="82.035233"
       sodipodi:cx="97.337128"
       id="path3003"
       style="color:#000000;fill:none;fill-opacity:0.75;fill-rule:evenodd;stroke:#000000;stroke-width:0.999998pt;stroke-linecap:butt;stroke-linejoin:miter;stroke-miterlimit:4;stroke-dashoffset:0;stroke-opacity:1;marker:none;marker-start:none;marker-mid:none;marker-end:none"
       sodipodi:type="spiral" />
    <path
       transform="scale(-1,1)"
       d="m -100.67996,85.31157 c -1.28469,8.38212 -9.63974,13.82659 -17.84471,12.481306 -9.42364,-1.545096 -15.52295,-10.976198 -13.92858,-20.224713 1.80414,-10.46531 12.31287,-17.220265 22.60472,-15.375839 10.722615,1.921623 18.06572,12.210531 17.103824,22.935705"
       sodipodi:t0="0.6494782"
       sodipodi:argument="-17.5138"
       sodipodi:radius="22.143892"
       sodipodi:revolution="2.8106463"
       sodipodi:expansion="1"
       sodipodi:cy="81.906235"
       sodipodi:cx="-114.65297"
       id="path3004"
       style="color:#000000;fill:none;fill-opacity:0.75;fill-rule:evenodd;stroke:#000000;stroke-width:0.999998pt;stroke-linecap:round;stroke-linejoin:miter;stroke-miterlimit:4;stroke-dashoffset:0;stroke-opacity:1;marker:none;marker-start:none;marker-mid:none;marker-end:none"
       sodipodi:type="spiral" />
    <path
       transform="matrix(0.679332,-0.128635,-0.128635,-0.679332,980.43538,4517.767)"
       d="m 103.19778,6518.4199 c -4e-5,4e-4 -0.001,-1e-4 -0.001,-1e-4 -0.007,-0 -1.1e-4,-0.015 0.003,-0.018 0.0264,-0.027 0.0701,0 0.0858,0.027 0.0653,0.097 -0.0276,0.2172 -0.11417,0.2596 -0.25525,0.1251 -0.52593,-0.1018 -0.61278,-0.3317 -0.20797,-0.5506 0.26653,-1.0854 0.76845,-1.2367 1.0438,-0.3146 2.00331,0.5735 2.24,1.5353 0.44454,1.8063 -1.08533,3.4058 -2.76445,3.7487 -2.919608,0.5962 -5.437018,-1.8752 -5.905624,-4.6093 -0.767056,-4.4753 3.026817,-8.2588 7.243494,-8.8701 6.57513,-0.9533 12.05058,4.6341 12.81817,10.8613 1.15012,9.3306 -6.80124,17.009 -15.67697,17.9418 -12.862998,1.3518 -23.347956,-9.6423 -24.449245,-21.9244 -1.551527,-17.3034 13.281579,-31.2982 29.857455,-32.5647 17.75729,-1.3567 33.84544,10.6569 39.85203,27.0189"
       sodipodi:t0="0"
       sodipodi:argument="-17.179831"
       sodipodi:radius="44.105801"
       sodipodi:revolution="3.7046297"
       sodipodi:expansion="3.8924387"
       sodipodi:cy="6518.4199"
       sodipodi:cx="103.19778"
       id="path3626"
       style="color:#000000;fill:#ff6c2e;fill-opacity:1;fill-rule:evenodd;stroke:none;stroke-width:0.862877pt;stroke-linecap:butt;stroke-linejoin:miter;stroke-miterlimit:4;stroke-dashoffset:0;stroke-opacity:0.236923;marker:none;marker-start:none;marker-mid:none;marker-end:none"
       sodipodi:type="spiral" />
    <path
       transform="matrix(0.178949,-0.667845,0.667845,0.178949,-4375.6153,-1086.497)"
       d="m 36.158393,6582.6982 c -0.323663,-1.9904 1.41952,-3.6226 3.279794,-3.8639 3.0577,-0.3965 5.516344,2.2864 5.813106,5.1629 0.464307,4.5004 -3.495562,8.0651 -7.752278,8.4114 -6.395906,0.5203 -11.402444,-5.1252 -11.785885,-11.2026 -0.557003,-8.8283 7.260817,-15.6736 15.682569,-16.0744 11.888629,-0.5656 21.035508,9.9959 21.425185,21.3755 0.466259,13.616 -10.268512,24.9595 -23.270662,27.4461"
       sodipodi:t0="0.53471386"
       sodipodi:argument="-21.729349"
       sodipodi:radius="30.881491"
       sodipodi:revolution="3.7046297"
       sodipodi:expansion="3.8924387"
       sodipodi:cy="6583.0801"
       sodipodi:cx="38.83165"
       id="path3627"
       style="color:#000000;fill:none;fill-opacity:0.75;fill-rule:evenodd;stroke:#000000;stroke-width:1.44633pt;stroke-linecap:butt;stroke-linejoin:miter;stroke-miterlimit:4;stroke-dashoffset:0;stroke-opacity:1;marker:none;marker-start:none;marker-mid:none;marker-end:none"
       sodipodi:type="spiral" />
    <path
       transform="matrix(-0.178949,-0.667845,-0.667845,0.178949,4471.9207,-1093.846)"
       d="m 36.158393,6582.6982 c -0.323663,-1.9904 1.41952,-3.6226 3.279794,-3.8639 3.0577,-0.3965 5.516344,2.2864 5.813106,5.1629 0.464307,4.5004 -3.495562,8.0651 -7.752278,8.4114 -6.395906,0.5203 -11.402444,-5.1252 -11.785885,-11.2026 -0.557003,-8.8283 7.260817,-15.6736 15.682569,-16.0744 11.888629,-0.5656 21.035508,9.9959 21.425185,21.3755 0.466259,13.616 -10.268512,24.9595 -23.270662,27.4461"
       sodipodi:t0="0.53471386"
       sodipodi:argument="-21.729349"
       sodipodi:radius="30.881491"
       sodipodi:revolution="3.7046297"
       sodipodi:expansion="3.8924387"
       sodipodi:cy="6583.0801"
       sodipodi:cx="38.83165"
       id="path3628"
       style="color:#000000;fill:none;fill-opacity:0.75;fill-rule:evenodd;stroke:#000000;stroke-width:1.44633pt;stroke-linecap:butt;stroke-linejoin:miter;stroke-miterlimit:4;stroke-dashoffset:0;stroke-opacity:1;marker:none;marker-start:none;marker-mid:none;marker-end:none"
       sodipodi:type="spiral" />
    <path
       transform="matrix(0.488897,-0.488897,0.488897,0.488897,-3202.2993,-3162.787)"
       d="m 36.158393,6582.6982 c -0.323663,-1.9904 1.41952,-3.6226 3.279794,-3.8639 3.0577,-0.3965 5.516344,2.2864 5.813106,5.1629 0.464307,4.5004 -3.495562,8.0651 -7.752278,8.4114 -6.395906,0.5203 -11.402444,-5.1252 -11.785885,-11.2026 -0.557003,-8.8283 7.260817,-15.6736 15.682569,-16.0744 11.888629,-0.5656 21.035508,9.9959 21.425185,21.3755 0.466259,13.616 -10.268512,24.9595 -23.270662,27.4461"
       sodipodi:t0="0.53471386"
       sodipodi:argument="-21.729349"
       sodipodi:radius="30.881491"
       sodipodi:revolution="3.7046297"
       sodipodi:expansion="3.8924387"
       sodipodi:cy="6583.0801"
       sodipodi:cx="38.83165"
       id="path3629"
       style="color:#000000;fill:none;fill-opacity:0.75;fill-rule:evenodd;stroke:#000000;stroke-width:1.44633pt;stroke-linecap:butt;stroke-linejoin:miter;stroke-miterlimit:4;stroke-dashoffset:0;stroke-opacity:1;marker:none;marker-start:none;marker-mid:none;marker-end:none"
       sodipodi:type="spiral" />
    <path
       d="m 59.591904,21.214857 c -0.223782,-1.376162 0.981462,-2.504701 2.267663,-2.671506 2.114106,-0.274173 3.814022,1.580841 4.019205,3.569626 0.321023,3.111608 -2.416846,5.576238 -5.359956,5.815673 -4.422155,0.359761 -7.883695,-3.543527 -8.148808,-7.745487 -0.385114,-6.103947 5.020158,-10.8368191 10.842991,-11.1138793 8.219845,-0.391114 14.544033,6.9111723 14.813458,14.7790693 0.322373,9.414142 -7.099691,17.257128 -16.089428,18.97635"
       sodipodi:t0="0.53471386"
       sodipodi:argument="-21.729349"
       sodipodi:radius="21.351585"
       sodipodi:revolution="3.7046297"
       sodipodi:expansion="3.8924387"
       sodipodi:cy="21.478899"
       sodipodi:cx="61.440205"
       id="path3630"
       style="color:#000000;fill:none;fill-opacity:0.75;fill-rule:evenodd;stroke:#000000;stroke-width:0.999998pt;stroke-linecap:butt;stroke-linejoin:miter;stroke-miterlimit:4;stroke-dashoffset:0;stroke-opacity:1;marker:none;marker-start:none;marker-mid:none;marker-end:none"
       sodipodi:type="spiral" />
    <path
       d="m 279.22128,32.966885 c 4.265,4.733433 3.71103,12.090445 1.27487,17.527413"
       sodipodi:t0="0.93520707"
       sodipodi:argument="-16.24534"
       sodipodi:radius="19.499413"
       sodipodi:revolution="2.7562277"
       sodipodi:expansion="13.200652"
       sodipodi:cy="33.365593"
       sodipodi:cx="271.17764"
       id="path3632"
       style="color:#000000;fill:none;fill-opacity:0.75;fill-rule:evenodd;stroke:#000000;stroke-width:0.999998pt;stroke-linecap:butt;stroke-linejoin:miter;stroke-miterlimit:4;stroke-dashoffset:0;stroke-opacity:1;marker:none;marker-start:none;marker-mid:none;marker-end:none"
       sodipodi:type="spiral" />
    <path
       d="m 270.68453,17.387482 c 0.48733,-2.077425 3.36949,-2.268614 4.99975,-1.794725 7.31067,2.125086 7.81177,12.146468 5.80334,18.018646 -0.22831,0.667502 -0.48823,1.324124 -0.77669,1.967896"
       sodipodi:t0="0.81344151"
       sodipodi:argument="-16.24534"
       sodipodi:radius="19.499413"
       sodipodi:revolution="2.7562277"
       sodipodi:expansion="13.200652"
       sodipodi:cy="18.450594"
       sodipodi:cx="271.39243"
       id="path3633"
       style="color:#000000;fill:none;fill-opacity:0.75;fill-rule:evenodd;stroke:#000000;stroke-width:0.999998pt;stroke-linecap:butt;stroke-linejoin:miter;stroke-miterlimit:4;stroke-dashoffset:0;stroke-opacity:1;marker:none;marker-start:none;marker-mid:none;marker-end:none"
       sodipodi:type="spiral" />
    <path
       transform="matrix(0.345702,-0.598773,0.598773,0.345702,-3696.3693,-2066.525)"
       d="m 241.31818,6459.7695 c 0.70485,-3.0046 4.87341,-3.2812 7.23131,-2.5958 10.57366,3.0736 11.29841,17.5679 8.39355,26.061 -0.3302,0.9654 -0.70614,1.9151 -1.12334,2.8462"
       sodipodi:t0="0.81344151"
       sodipodi:argument="-16.24534"
       sodipodi:radius="28.202633"
       sodipodi:revolution="2.7562277"
       sodipodi:expansion="13.200652"
       sodipodi:cy="6461.3071"
       sodipodi:cx="242.34204"
       id="path3634"
       style="color:#000000;fill:none;fill-opacity:0.75;fill-rule:evenodd;stroke:#000000;stroke-width:1.44633pt;stroke-linecap:butt;stroke-linejoin:miter;stroke-miterlimit:4;stroke-dashoffset:0;stroke-opacity:1;marker:none;marker-start:none;marker-mid:none;marker-end:none"
       sodipodi:type="spiral" />
    <path
       transform="matrix(-0.488897,-0.488897,0.488897,-0.488897,-2793.1913,3319.223)"
       d="m 241.31818,6459.7695 c 0.70485,-3.0046 4.87343,-3.2812 7.23134,-2.5958 10.57368,3.0737 11.29841,17.5679 8.39352,26.0611 -1.90332,5.5648 -5.29328,10.5502 -9.45378,14.6755"
       sodipodi:t0="0.79694211"
       sodipodi:argument="-16.24534"
       sodipodi:radius="36.96331"
       sodipodi:revolution="2.8132913"
       sodipodi:expansion="13.200652"
       sodipodi:cy="6461.3071"
       sodipodi:cx="242.34204"
       id="path3635"
       style="color:#000000;fill:none;fill-opacity:0.75;fill-rule:evenodd;stroke:#000000;stroke-width:1.44633pt;stroke-linecap:butt;stroke-linejoin:miter;stroke-miterlimit:4;stroke-dashoffset:0;stroke-opacity:1;marker:none;marker-start:none;marker-mid:none;marker-end:none"
       sodipodi:type="spiral" />
    <path
       transform="scale(-1)"
       d="m -257.86992,-57.576557 c 0.48734,-2.077427 3.36951,-2.268612 4.99977,-1.794721 7.31067,2.125097 7.81175,12.146489 5.80331,18.01867 -1.30169,3.805811 -3.60954,7.220308 -6.44324,10.053966"
       sodipodi:t0="0.7971282"
       sodipodi:argument="-16.24534"
       sodipodi:radius="25.47789"
       sodipodi:revolution="2.8126345"
       sodipodi:expansion="13.200652"
       sodipodi:cy="-56.513443"
       sodipodi:cx="-257.16202"
       id="path3636"
       style="color:#000000;fill:none;fill-opacity:0.75;fill-rule:evenodd;stroke:#000000;stroke-width:0.999998pt;stroke-linecap:butt;stroke-linejoin:miter;stroke-miterlimit:4;stroke-dashoffset:0;stroke-opacity:1;marker:none;marker-start:none;marker-mid:none;marker-end:none"
       sodipodi:type="spiral" />
    <path
       transform="matrix(-0.345702,0.598773,-0.598773,-0.345702,4234.6327,2171.952)"
       d="m 241.31818,6459.7695 c 0.70484,-3.0046 4.8734,-3.2812 7.2313,-2.5958 10.57366,3.0736 11.29843,17.5678 8.39359,26.061 -5.81315,16.9963 -23.61604,26.8613 -40.45849,29.582"
       sodipodi:t0="0.7705704"
       sodipodi:argument="-16.24534"
       sodipodi:radius="57.635422"
       sodipodi:revolution="2.9095716"
       sodipodi:expansion="13.200652"
       sodipodi:cy="6461.3071"
       sodipodi:cx="242.34204"
       id="path3089"
       style="color:#000000;fill:none;fill-opacity:0.75;fill-rule:evenodd;stroke:#000000;stroke-width:1.44633pt;stroke-linecap:butt;stroke-linejoin:miter;stroke-miterlimit:4;stroke-dashoffset:0;stroke-opacity:1;marker:none;marker-start:none;marker-mid:none;marker-end:none"
       sodipodi:type="spiral" />
  </g>
</svg>
