<?xml version="1.0" encoding="UTF-8" standalone="no"?>
<svg
   xmlns:dc="http://purl.org/dc/elements/1.1/"
   xmlns:cc="http://creativecommons.org/ns#"
   xmlns:rdf="http://www.w3.org/1999/02/22-rdf-syntax-ns#"
   xmlns:svg="http://www.w3.org/2000/svg"
   xmlns="http://www.w3.org/2000/svg"
   xmlns:xlink="http://www.w3.org/1999/xlink"
   xmlns:sodipodi="http://sodipodi.sourceforge.net/DTD/sodipodi-0.dtd"
   xmlns:inkscape="http://www.inkscape.org/namespaces/inkscape"
   sodipodi:docname="tracing-f02.svg"
   inkscape:version="1.0beta1 (a4ee55bc41, 2019-11-15)"
   sodipodi:version="0.32"
   id="svg3129"
   viewBox="0 0 300 105"
   height="105"
   width="300"
   version="1.1">
  <defs
     id="defs3" />
  <sodipodi:namedview
     inkscape:window-maximized="0"
     inkscape:window-y="27"
     inkscape:window-x="54"
     inkscape:window-height="1053"
     inkscape:window-width="1866"
     inkscape:guide-bbox="true"
     showguides="true"
     units="px"
     showgrid="false"
     inkscape:document-rotation="0"
     inkscape:current-layer="layer1"
     inkscape:document-units="px"
     inkscape:cy="52.5"
     inkscape:cx="160"
     inkscape:zoom="1.4"
     inkscape:pageshadow="2"
     inkscape:pageopacity="0.0"
     borderopacity="1.0"
     bordercolor="#666666"
     pagecolor="#ffffff"
     id="base"
     inkscape:lockguides="true" />
  <metadata
     id="metadata4">
    <rdf:RDF>
      <cc:Work
         rdf:about="">
        <dc:format>image/svg+xml</dc:format>
        <dc:type
           rdf:resource="http://purl.org/dc/dcmitype/StillImage" />
        <dc:title />
      </cc:Work>
    </rdf:RDF>
  </metadata>
  <g
     id="layer1"
     inkscape:groupmode="layer"
     inkscape:label="Layer 1">
    <text
       id="text1823"
       y="97.154671"
       x="63.696297"
       style="font-style:normal;font-variant:normal;font-weight:normal;font-stretch:normal;line-height:0%;font-family:'Liberation Sans',Arial,sans-serif;writing-mode:lr-tb;text-anchor:middle;display:block;fill:#000000;fill-opacity:1;stroke:none;stroke-width:1pt;stroke-linecap:butt;stroke-linejoin:miter;stroke-opacity:1"
       xml:space="preserve"><tspan
         y="97.154671"
         x="63.696297"
         id="tspan1824"
         sodipodi:role="line"
         style="font-size:6px;line-height:1.1">Original Image</tspan></text>
    <text
       id="text1826"
       y="97.37867"
       x="152.81369"
       style="font-style:normal;font-variant:normal;font-weight:normal;font-stretch:normal;line-height:0%;font-family:'Liberation Sans',Arial,sans-serif;writing-mode:lr-tb;text-anchor:middle;display:block;fill:#000000;fill-opacity:1;stroke:none;stroke-width:1pt;stroke-linecap:butt;stroke-linejoin:miter;stroke-opacity:1"
       xml:space="preserve"><tspan
         y="97.37867"
         x="152.81369"
         id="tspan1827"
         sodipodi:role="line"
         style="font-size:6px;line-height:1.1">Brightness Threshold</tspan><tspan
         y="103.37867"
         x="152.81369"
         id="tspan1829"
         sodipodi:role="line"
         style="font-size:6px;line-height:1.1">Fill, no Stroke</tspan></text>
    <text
       id="text1483"
       y="97.37867"
       x="239.11449"
       style="font-style:normal;font-variant:normal;font-weight:normal;font-stretch:normal;line-height:0%;font-family:'Liberation Sans',Arial,sans-serif;writing-mode:lr-tb;text-anchor:middle;display:block;fill:#000000;fill-opacity:1;stroke:none;stroke-width:1pt;stroke-linecap:butt;stroke-linejoin:miter;stroke-opacity:1"
       xml:space="preserve"><tspan
         id="tspan1488"
         sodipodi:role="line"
         y="97.37867"
         x="239.11449"
         style="font-size:6px;line-height:1.1">Brightness Threshold</tspan><tspan
         id="tspan1490"
         sodipodi:role="line"
         y="103.37867"
         x="239.11449"
         style="font-size:6px;line-height:1.1">Stroke, no Fill</tspan></text>
    <image
       sodipodi:absref="/home/gellert/workspace/inkscape/documentation/tutorials/tracing/tux.png"
       xlink:href="tux.png"
       y="-3.0566407e-05"
       x="25.213633"
       id="image1881"
       height="91.143097"
       width="76.965286" />
    <path
       id="path1510"
       d="m 137.63295,88.29244 c -0.97473,-0.46293 -5.28768,-1.79026 -9.58433,-2.94962 -4.69804,-1.26767 -8.01285,-2.42618 -8.31571,-2.9063 -0.3524,-0.55868 -0.23061,-1.6663 0.40567,-3.6892 0.62712,-1.99377 0.80989,-3.61591 0.589,-5.22749 -0.23289,-1.69911 -0.16833,-2.18472 0.23661,-1.77978 0.57796,0.57797 0.39403,5.78547 -0.29638,8.39102 -0.33093,1.24892 -0.18799,1.46928 1.37722,2.12328 0.96057,0.40134 2.98098,0.87759 4.48981,1.05831 1.50883,0.18073 5.16646,0.90041 8.12807,1.5993 5.16511,1.21887 5.45782,1.23602 7.17637,0.42052 2.22535,-1.056 3.51886,-3.54015 3.0539,-5.86495 -0.18222,-0.91109 -1.92605,-4.18235 -3.87517,-7.26948 -6.12138,-9.69536 -7.43343,-10.94926 -10.05551,-9.6098 -1.29596,0.66203 -1.36735,0.62977 -1.6716,-0.75549 -0.43339,-1.97322 0.0767,-3.81556 2.04904,-7.40007 0.91941,-1.67095 2.24394,-4.79692 2.9434,-6.94659 1.58183,-4.86151 1.97664,-5.60686 4.63492,-8.75027 1.17756,-1.39247 2.8373,-3.63681 3.6883,-4.98744 l 1.54728,-2.45568 -0.3005,-9.79879 c -0.26485,-8.63623 -0.19374,-10.07836 0.59939,-12.15513 2.02191,-5.2943 5.84618,-7.63139 11.78694,-7.20325 5.4312,0.39141 9.12354,2.62647 11.63489,7.04285 1.39025,2.44486 1.65145,3.8165 2.10307,11.04406 0.37435,5.99091 0.43831,6.23999 2.79933,10.90253 1.32893,2.62435 3.54205,6.05808 4.91804,7.6305 4.739,5.41552 7.26506,12.19169 7.25995,19.47484 -0.003,4.73017 -0.0357,4.85903 -1.94601,7.73264 -2.45719,3.69634 -3.51092,4.41977 -6.43766,4.41977 -3.63232,0 -3.7424,-0.30123 -3.77573,-10.33215 -0.0319,-9.59205 -0.61967,-12.24423 -3.68167,-16.6123 -0.83692,-1.19389 -1.67521,-2.9682 -1.86287,-3.94293 -0.36044,-1.8721 -4.21377,-10.15799 -4.97445,-10.69665 -0.2458,-0.17406 -0.19472,-0.47233 0.11351,-0.66282 0.70146,-0.43354 0.73842,-3.15491 0.0486,-3.58122 -0.32395,-0.20022 -0.23103,-0.71714 0.25317,-1.40843 1.04382,-1.49026 0.95996,-3.563 -0.23925,-5.91366 -1.15649,-2.2669 -2.5255,-2.8871 -4.53528,-2.05462 -1.82446,0.75571 -2.77027,2.5599 -2.44744,4.66863 0.28233,1.84422 0.0412,2.9392 -0.64734,2.9392 -0.24654,0 -0.30364,-0.37686 -0.12689,-0.83747 0.27593,-0.71905 0.031,-0.79852 -1.73247,-0.562 l -2.05384,0.27548 0.24574,-1.84317 c 0.1843,-1.38235 -0.0287,-2.1913 -0.85193,-3.23563 -2.20766,-2.80057 -4.56861,-1.02608 -4.56861,3.43375 0,2.70437 0.95445,4.6968 1.95401,4.07904 0.4327,-0.26742 0.38599,-0.65304 -0.17636,-1.4559 -0.9079,-1.29621 -0.99961,-3.4677 -0.18103,-4.28628 0.81511,-0.81511 2.26177,0.05217 2.64695,1.58686 0.1701,0.67771 0.44854,1.59515 0.61877,2.03876 0.17524,0.45665 0.0507,0.80656 -0.28718,0.80656 -0.82016,0 -1.75069,1.00329 -2.7842,3.00188 -0.83542,1.61552 -0.83158,1.727 0.0912,2.64978 2.14622,2.14623 7.38718,1.50541 11.85179,-1.44913 1.09093,-0.72194 2.10253,-1.19359 2.248,-1.04812 0.25932,0.25932 -1.92334,1.79773 -5.04221,3.55395 -0.89883,0.50612 -2.629,0.88567 -4.03942,0.88612 -2.13558,6.8e-4 -2.38245,0.10286 -1.83682,0.76031 0.84046,1.01269 2.28076,0.95729 5.87102,-0.22582 2.93468,-0.96707 2.96665,-0.96728 1.72424,-0.01135 -3.89434,2.99639 -6.44785,3.04338 -9.62055,0.17703 -2.05507,-1.85663 -2.53186,-1.63131 -2.53186,1.19651 0,0.7187 -0.66989,2.35203 -1.48864,3.62963 -0.81875,1.2776 -1.76785,3.46219 -2.10912,4.85466 -0.34127,1.39246 -1.7241,4.81059 -3.07295,7.59583 -2.5273,5.2186 -3.71539,10.589 -2.96704,13.4116 0.20696,0.78062 2.22937,2.79448 5.23527,5.21315 5.27023,4.24064 6.20236,5.74263 4.63719,7.47213 -0.49391,0.54576 -1.20449,0.9923 -1.57907,0.9923 -1.87897,0 0.64192,3.60555 3.22377,4.61087 2.07741,0.8089 7.95663,0.63067 10.84526,-0.32878 2.77825,-0.92279 6.39049,-3.41537 8.92181,-6.1564 l 1.64564,-1.78197 v 5.14457 c 0,5.7907 0.69173,7.84289 2.9305,8.69407 1.99654,0.75908 4.39163,0.13871 9.17059,-2.37533 4.89061,-2.57278 5.77383,-2.83806 2.73406,-0.82119 -1.17017,0.7764 -3.11279,2.33504 -4.31692,3.46365 -2.92919,2.74545 -3.93826,3.22231 -6.8139,3.22008 -2.62108,-0.002 -5.72973,-1.47588 -5.72973,-2.71653 0,-1.10798 -1.67703,-1.31805 -10.58121,-1.32547 l -8.30264,-0.0069 -2.26003,1.85193 c -2.7103,2.22089 -5.89263,2.72156 -8.7308,1.37361 z m 30.67117,-58.69978 c -1.24534,-0.91921 -1.54709,-0.61412 -0.79061,0.79938 0.45359,0.84753 0.73303,0.96961 1.18032,0.51563 0.44495,-0.45162 0.35114,-0.76818 -0.38971,-1.31501 z M 161.93777,7.31221 c 0,-0.12281 -0.22785,-0.22329 -0.50635,-0.22329 -0.27849,0 -0.50635,0.2413 -0.50635,0.53623 0,0.29493 0.22786,0.39541 0.50635,0.22329 0.2785,-0.17211 0.50635,-0.41342 0.50635,-0.53623 z m -41.47722,62.65747 c -0.0526,-1.41847 0.79815,-3.1314 1.55535,-3.1314 0.37189,0 0.35471,0.23595 -0.0529,0.72716 -0.33192,0.39993 -0.79595,1.36832 -1.03118,2.15199 -0.3849,1.28227 -0.43205,1.30751 -0.47122,0.25225 z m 4.51363,-3.49058 c 1.71073,-0.13684 2.57635,-0.5249 3.47344,-1.55718 0.65717,-0.7562 1.02127,-1.03313 0.8091,-0.61539 -1.02198,2.01214 -1.92158,2.53122 -4.23443,2.44329 l -2.32668,-0.08846 z M 158.0818,22.90462 c -1.08627,-0.71562 -1.32155,-2.65432 -0.47832,-3.94126 1.47277,-2.24773 3.82794,-1.29787 3.82794,1.54385 0,2.32166 -1.66053,3.51015 -3.34962,2.39741 z"
       inkscape:connector-curvature="0" />
    <path
       style="fill:none;stroke:#000000;stroke-width:0.375;stroke-miterlimit:4;stroke-opacity:1"
       id="path1515"
       d="m 223.93377,88.29242 c -0.97473,-0.46293 -5.28768,-1.79026 -9.58433,-2.94962 -4.69804,-1.26767 -8.01285,-2.42618 -8.31571,-2.9063 -0.3524,-0.55868 -0.23061,-1.6663 0.40567,-3.6892 0.62712,-1.99377 0.80989,-3.61591 0.589,-5.22749 -0.23289,-1.69911 -0.16833,-2.18472 0.23661,-1.77978 0.57796,0.57797 0.39403,5.78547 -0.29638,8.39102 -0.33093,1.24892 -0.18799,1.46928 1.37722,2.12328 0.96057,0.40134 2.98098,0.87759 4.48981,1.05831 1.50883,0.18073 5.16646,0.90041 8.12807,1.5993 5.16511,1.21887 5.45782,1.23602 7.17637,0.42052 2.22535,-1.056 3.51886,-3.54015 3.0539,-5.86495 -0.18222,-0.91109 -1.92605,-4.18235 -3.87517,-7.26948 -6.12138,-9.69536 -7.43343,-10.94926 -10.05551,-9.6098 -1.29596,0.66203 -1.36735,0.62977 -1.6716,-0.75549 -0.43339,-1.97322 0.0767,-3.81556 2.04904,-7.40007 0.91941,-1.67095 2.24394,-4.79692 2.9434,-6.94659 1.58183,-4.86151 1.97664,-5.60686 4.63492,-8.75027 1.17756,-1.39247 2.8373,-3.63681 3.6883,-4.98744 l 1.54728,-2.45568 -0.3005,-9.79879 c -0.26485,-8.63623 -0.19374,-10.07836 0.59939,-12.15513 2.02191,-5.2943 5.84618,-7.63139 11.78694,-7.20325 5.4312,0.39141 9.12354,2.62647 11.63489,7.04285 1.39025,2.44486 1.65145,3.8165 2.10307,11.04406 0.37435,5.99091 0.43831,6.23999 2.79933,10.90253 1.32893,2.62435 3.54205,6.05808 4.91804,7.6305 4.739,5.41552 7.26506,12.19169 7.25995,19.47484 -0.003,4.73017 -0.0357,4.85903 -1.94601,7.73264 -2.45719,3.69634 -3.51092,4.41977 -6.43766,4.41977 -3.63232,0 -3.7424,-0.30123 -3.77573,-10.33215 -0.0319,-9.59205 -0.61967,-12.24423 -3.68167,-16.6123 -0.83692,-1.19389 -1.67521,-2.9682 -1.86287,-3.94293 -0.36044,-1.8721 -4.21377,-10.15799 -4.97445,-10.69665 -0.2458,-0.17406 -0.19472,-0.47233 0.11351,-0.66282 0.70146,-0.43354 0.73842,-3.15491 0.0486,-3.58122 -0.32395,-0.20022 -0.23103,-0.71714 0.25317,-1.40843 1.04382,-1.49026 0.95996,-3.563 -0.23925,-5.91366 -1.15649,-2.2669 -2.5255,-2.8871 -4.53528,-2.05462 -1.82446,0.75571 -2.77027,2.5599 -2.44744,4.66863 0.28233,1.84422 0.0412,2.9392 -0.64734,2.9392 -0.24654,0 -0.30364,-0.37686 -0.12689,-0.83747 0.27593,-0.71905 0.0309,-0.79852 -1.73247,-0.562 l -2.05384,0.27548 0.24574,-1.84317 c 0.1843,-1.38235 -0.0287,-2.1913 -0.85193,-3.23563 -2.20766,-2.80057 -4.56861,-1.02608 -4.56861,3.43375 0,2.70437 0.95445,4.6968 1.95401,4.07904 0.4327,-0.26742 0.38599,-0.65304 -0.17636,-1.4559 -0.9079,-1.29621 -0.99961,-3.4677 -0.18103,-4.28628 0.81511,-0.81511 2.26177,0.05217 2.64695,1.58686 0.1701,0.67771 0.44854,1.59515 0.61877,2.03876 0.17524,0.45665 0.0506,0.80656 -0.28718,0.80656 -0.82016,0 -1.75069,1.00329 -2.7842,3.00188 -0.83542,1.61552 -0.83158,1.727 0.0912,2.64978 2.14622,2.14623 7.38718,1.50541 11.85179,-1.44913 1.09093,-0.72194 2.10253,-1.19359 2.248,-1.04812 0.25932,0.25932 -1.92334,1.79773 -5.04221,3.55395 -0.89883,0.50612 -2.629,0.88567 -4.03942,0.88612 -2.13558,6.8e-4 -2.38245,0.10286 -1.83682,0.76031 0.84046,1.01269 2.28076,0.95729 5.87102,-0.22582 2.93468,-0.96707 2.96665,-0.96728 1.72424,-0.01135 -3.89434,2.99639 -6.44785,3.04338 -9.62055,0.17703 -2.05507,-1.85663 -2.53186,-1.63131 -2.53186,1.19651 0,0.7187 -0.66989,2.35203 -1.48864,3.62963 -0.81875,1.2776 -1.76785,3.46219 -2.10912,4.85466 -0.34127,1.39246 -1.7241,4.81059 -3.07295,7.59583 -2.5273,5.2186 -3.71539,10.589 -2.96704,13.4116 0.20696,0.78062 2.22937,2.79448 5.23527,5.21315 5.27023,4.24064 6.20236,5.74263 4.63719,7.47213 -0.49391,0.54576 -1.20449,0.9923 -1.57907,0.9923 -1.87897,0 0.64192,3.60555 3.22377,4.61087 2.07741,0.8089 7.95663,0.63067 10.84526,-0.32878 2.77825,-0.92279 6.39049,-3.41537 8.92181,-6.1564 l 1.64564,-1.78197 v 5.14457 c 0,5.7907 0.69173,7.84289 2.9305,8.69407 1.99654,0.75908 4.39163,0.13871 9.17059,-2.37533 4.89061,-2.57278 5.77383,-2.83806 2.73406,-0.82119 -1.17017,0.7764 -3.11279,2.33504 -4.31692,3.46365 -2.92919,2.74545 -3.93826,3.22231 -6.8139,3.22008 -2.62108,-0.002 -5.72973,-1.47588 -5.72973,-2.71653 0,-1.10798 -1.67703,-1.31805 -10.58121,-1.32547 l -8.30264,-0.0069 -2.26003,1.85193 c -2.7103,2.22089 -5.89263,2.72156 -8.7308,1.37361 z m 30.67117,-58.69978 c -1.24534,-0.91921 -1.54709,-0.61412 -0.79061,0.79938 0.45359,0.84753 0.73303,0.96961 1.18032,0.51563 0.44495,-0.45162 0.35114,-0.76818 -0.38971,-1.31501 z M 248.23859,7.31219 c 0,-0.12281 -0.22785,-0.22329 -0.50635,-0.22329 -0.27849,0 -0.50635,0.2413 -0.50635,0.53623 0,0.29493 0.22786,0.39541 0.50635,0.22329 0.2785,-0.17211 0.50635,-0.41342 0.50635,-0.53623 z m -41.47722,62.65747 c -0.0526,-1.41847 0.79815,-3.1314 1.55535,-3.1314 0.37189,0 0.35471,0.23595 -0.0529,0.72716 -0.33192,0.39993 -0.79595,1.36832 -1.03118,2.15199 -0.3849,1.28227 -0.43205,1.30751 -0.47122,0.25225 z m 4.51363,-3.49058 c 1.71073,-0.13684 2.57635,-0.5249 3.47344,-1.55718 0.65717,-0.7562 1.02127,-1.03313 0.8091,-0.61539 -1.02198,2.01214 -1.92158,2.53122 -4.23443,2.44329 l -2.32668,-0.08846 z M 244.38262,22.9046 c -1.08627,-0.71562 -1.32155,-2.65432 -0.47832,-3.94126 1.47277,-2.24773 3.82794,-1.29787 3.82794,1.54385 0,2.32166 -1.66053,3.51015 -3.34962,2.39741 z"
       inkscape:connector-curvature="0" />
  </g>
</svg>
